{
  "debug": false,
  "user" : "homestead",
  "password" : "secret",
  "host" : "homestead.test",
  "port" : 3306,
  "database" : "ictatjcu_starbie",
  "exclude_tables" : [
	  "migrations"
  ],
  "only_include_tables" : [
  ]
}
